*** Life<ConwayCell> 1x1 ***

Generation = 0, Population = 1.
*

*** Life<ConwayCell> 17x12 ***

Generation = 0, Population = 8.
..........*.
............
............
............
......*.....
.....*......
......*.....
........*...
............
............
............
........*...
.......*....
............
............
..*.........
............

Generation = 154, Population = 0.
............
............
............
............
............
............
............
............
............
............
............
............
............
............
............
............
............

Generation = 308, Population = 0.
............
............
............
............
............
............
............
............
............
............
............
............
............
............
............
............
............

*** Life<ConwayCell> 8x14 ***

Generation = 0, Population = 7.
..............
..............
.....*..*.....
.............*
..............
..........*...
........*.....
*........*....

Generation = 154, Population = 0.
..............
..............
..............
..............
..............
..............
..............
..............

*** Life<ConwayCell> 7x13 ***

Generation = 0, Population = 13.
.............
*......*..***
.....*....*..
............*
*.....*....*.
.....*.......
...*.........

Generation = 128, Population = 12.
.........***.
.......*....*
.......*....*
.......*....*
.............
.........***.
.............

Generation = 256, Population = 18.
.........***.
........*.*.*
.......***.**
.......*..*.*
..........**.
.........**..
.............

*** Life<ConwayCell> 18x10 ***

Generation = 0, Population = 13.
.....*....
..........
.....*....
......*...
..........
.......**.
.....*....
..........
.........*
..........
....*.....
...*......
*.*....*..
..........
..........
..........
........*.
..........

Generation = 108, Population = 0.
..........
..........
..........
..........
..........
..........
..........
..........
..........
..........
..........
..........
..........
..........
..........
..........
..........
..........

Generation = 216, Population = 0.
..........
..........
..........
..........
..........
..........
..........
..........
..........
..........
..........
..........
..........
..........
..........
..........
..........
..........

*** Life<ConwayCell> 20x14 ***

Generation = 0, Population = 20.
..............
..............
..............
*.............
..............
......*.......
.....*.....*..
*.............
.....***......
*.........*...
...........*..
.............*
.......*......
.......*......
..............
........*.....
..*...........
..............
.....*...*....
.......*..*...

*** Life<ConwayCell> 5x8 ***

Generation = 0, Population = 10.
...***..
........
.....**.
.**....*
....**..

Generation = 74, Population = 0.
........
........
........
........
........

Generation = 148, Population = 0.
........
........
........
........
........

Generation = 222, Population = 0.
........
........
........
........
........

Generation = 296, Population = 0.
........
........
........
........
........

Generation = 370, Population = 0.
........
........
........
........
........

*** Life<ConwayCell> 20x20 ***

Generation = 0, Population = 19.
....................
...*.............*..
*................*..
...................*
...*................
..............*.....
.............*......
..........*.......*.
....................
....................
....................
....................
...*.....*..........
......*.............
................*...
..*.................
...............*....
........*...........
....*....*..........
....................

Generation = 94, Population = 0.
....................
....................
....................
....................
....................
....................
....................
....................
....................
....................
....................
....................
....................
....................
....................
....................
....................
....................
....................
....................

Generation = 188, Population = 0.
....................
....................
....................
....................
....................
....................
....................
....................
....................
....................
....................
....................
....................
....................
....................
....................
....................
....................
....................
....................

*** Life<ConwayCell> 6x1 ***

Generation = 0, Population = 5.
*
*
*
*
.
*

Generation = 42, Population = 0.
.
.
.
.
.
.

Generation = 84, Population = 0.
.
.
.
.
.
.

Generation = 126, Population = 0.
.
.
.
.
.
.

Generation = 168, Population = 0.
.
.
.
.
.
.

*** Life<ConwayCell> 5x9 ***

Generation = 0, Population = 5.
*....*...
.....*..*
.........
.........
.......*.

Generation = 59, Population = 0.
.........
.........
.........
.........
.........

Generation = 118, Population = 0.
.........
.........
.........
.........
.........

Generation = 177, Population = 0.
.........
.........
.........
.........
.........

Generation = 236, Population = 0.
.........
.........
.........
.........
.........

*** Life<ConwayCell> 8x6 ***

Generation = 0, Population = 12.
.....*
.**...
**....
..**..
*.....
....*.
..*...
..**..

Generation = 86, Population = 13.
.**...
*.*...
**....
......
......
....**
..*..*
..***.

Generation = 172, Population = 13.
.**...
*.*...
**....
......
......
....**
..*..*
..***.

Generation = 258, Population = 13.
.**...
*.*...
**....
......
......
....**
..*..*
..***.

Generation = 344, Population = 13.
.**...
*.*...
**....
......
......
....**
..*..*
..***.

*** Life<ConwayCell> 8x9 ***

Generation = 0, Population = 12.
**...**..
...**....
....*....
..**.....
.........
..*......
.....*.*.
.........

Generation = 64, Population = 3.
.........
.........
......***
.........
.........
.........
.........
.........

Generation = 128, Population = 3.
.........
.........
......***
.........
.........
.........
.........
.........

*** Life<ConwayCell> 14x19 ***

Generation = 0, Population = 16.
..*......*.........
......*............
............*......
...*...............
..............*....
...................
...................
........*..........
........*..........
...................
..*.......*........
..............*.*..
..*................
...**....*.........

Generation = 3, Population = 0.
...................
...................
...................
...................
...................
...................
...................
...................
...................
...................
...................
...................
...................
...................

Generation = 6, Population = 0.
...................
...................
...................
...................
...................
...................
...................
...................
...................
...................
...................
...................
...................
...................

Generation = 9, Population = 0.
...................
...................
...................
...................
...................
...................
...................
...................
...................
...................
...................
...................
...................
...................

Generation = 12, Population = 0.
...................
...................
...................
...................
...................
...................
...................
...................
...................
...................
...................
...................
...................
...................

Generation = 15, Population = 0.
...................
...................
...................
...................
...................
...................
...................
...................
...................
...................
...................
...................
...................
...................

Generation = 18, Population = 0.
...................
...................
...................
...................
...................
...................
...................
...................
...................
...................
...................
...................
...................
...................

Generation = 21, Population = 0.
...................
...................
...................
...................
...................
...................
...................
...................
...................
...................
...................
...................
...................
...................

Generation = 24, Population = 0.
...................
...................
...................
...................
...................
...................
...................
...................
...................
...................
...................
...................
...................
...................

Generation = 27, Population = 0.
...................
...................
...................
...................
...................
...................
...................
...................
...................
...................
...................
...................
...................
...................

Generation = 30, Population = 0.
...................
...................
...................
...................
...................
...................
...................
...................
...................
...................
...................
...................
...................
...................

Generation = 33, Population = 0.
...................
...................
...................
...................
...................
...................
...................
...................
...................
...................
...................
...................
...................
...................

Generation = 36, Population = 0.
...................
...................
...................
...................
...................
...................
...................
...................
...................
...................
...................
...................
...................
...................

Generation = 39, Population = 0.
...................
...................
...................
...................
...................
...................
...................
...................
...................
...................
...................
...................
...................
...................

Generation = 42, Population = 0.
...................
...................
...................
...................
...................
...................
...................
...................
...................
...................
...................
...................
...................
...................

Generation = 45, Population = 0.
...................
...................
...................
...................
...................
...................
...................
...................
...................
...................
...................
...................
...................
...................

Generation = 48, Population = 0.
...................
...................
...................
...................
...................
...................
...................
...................
...................
...................
...................
...................
...................
...................

*** Life<ConwayCell> 7x14 ***

Generation = 0, Population = 5.
*.............
..............
........*.....
..*.*.........
..............
*.............
..............

*** Life<ConwayCell> 13x3 ***

Generation = 0, Population = 9.
*..
...
...
..*
...
...
.*.
..*
.*.
...
.*.
...
***

Generation = 101, Population = 0.
...
...
...
...
...
...
...
...
...
...
...
...
...

Generation = 202, Population = 0.
...
...
...
...
...
...
...
...
...
...
...
...
...

*** Life<ConwayCell> 15x15 ***

Generation = 0, Population = 12.
.............*.
............*..
..*............
*..............
.............*.
...............
......*........
...............
...........**..
.*.............
...............
..........*....
............*..
.*.............
...............

*** Life<ConwayCell> 1x3 ***

Generation = 0, Population = 2.
*.*

Generation = 52, Population = 0.
...

Generation = 104, Population = 0.
...

*** Life<ConwayCell> 14x10 ***

Generation = 0, Population = 11.
..*.......
..........
..........
......*.*.
......*...
..........
*.....*...
.........*
..........
..........
.....*....
.....**...
.*........
..........

Generation = 10, Population = 4.
..........
..........
..........
..........
..........
..........
..........
..........
..........
..........
.....**...
.....**...
..........
..........

Generation = 20, Population = 4.
..........
..........
..........
..........
..........
..........
..........
..........
..........
..........
.....**...
.....**...
..........
..........

Generation = 30, Population = 4.
..........
..........
..........
..........
..........
..........
..........
..........
..........
..........
.....**...
.....**...
..........
..........

Generation = 40, Population = 4.
..........
..........
..........
..........
..........
..........
..........
..........
..........
..........
.....**...
.....**...
..........
..........

Generation = 50, Population = 4.
..........
..........
..........
..........
..........
..........
..........
..........
..........
..........
.....**...
.....**...
..........
..........

Generation = 60, Population = 4.
..........
..........
..........
..........
..........
..........
..........
..........
..........
..........
.....**...
.....**...
..........
..........

Generation = 70, Population = 4.
..........
..........
..........
..........
..........
..........
..........
..........
..........
..........
.....**...
.....**...
..........
..........

Generation = 80, Population = 4.
..........
..........
..........
..........
..........
..........
..........
..........
..........
..........
.....**...
.....**...
..........
..........

Generation = 90, Population = 4.
..........
..........
..........
..........
..........
..........
..........
..........
..........
..........
.....**...
.....**...
..........
..........

Generation = 100, Population = 4.
..........
..........
..........
..........
..........
..........
..........
..........
..........
..........
.....**...
.....**...
..........
..........

Generation = 110, Population = 4.
..........
..........
..........
..........
..........
..........
..........
..........
..........
..........
.....**...
.....**...
..........
..........

Generation = 120, Population = 4.
..........
..........
..........
..........
..........
..........
..........
..........
..........
..........
.....**...
.....**...
..........
..........

Generation = 130, Population = 4.
..........
..........
..........
..........
..........
..........
..........
..........
..........
..........
.....**...
.....**...
..........
..........

Generation = 140, Population = 4.
..........
..........
..........
..........
..........
..........
..........
..........
..........
..........
.....**...
.....**...
..........
..........

Generation = 150, Population = 4.
..........
..........
..........
..........
..........
..........
..........
..........
..........
..........
.....**...
.....**...
..........
..........

Generation = 160, Population = 4.
..........
..........
..........
..........
..........
..........
..........
..........
..........
..........
.....**...
.....**...
..........
..........

*** Life<ConwayCell> 17x14 ***

Generation = 0, Population = 7.
..............
..............
..............
..............
..............
............*.
..............
........*..*..
..............
..*...........
..*...........
..............
.............*
..............
......*.......
..............
..............

Generation = 126, Population = 0.
..............
..............
..............
..............
..............
..............
..............
..............
..............
..............
..............
..............
..............
..............
..............
..............
..............

Generation = 252, Population = 0.
..............
..............
..............
..............
..............
..............
..............
..............
..............
..............
..............
..............
..............
..............
..............
..............
..............

*** Life<ConwayCell> 2x18 ***

Generation = 0, Population = 6.
**.....*..........
.....*.*...*......

Generation = 164, Population = 0.
..................
..................

*** Life<ConwayCell> 17x3 ***

Generation = 0, Population = 13.
.*.
...
*..
*..
*..
.**
...
...
...
*..
.*.
..*
..*
...
*..
...
.**

*** Life<ConwayCell> 10x17 ***

Generation = 0, Population = 9.
...*.............
.................
.................
...*...........*.
..*......*.......
......*..........
.........*.......
.*...............
.................
.*...............

Generation = 48, Population = 0.
.................
.................
.................
.................
.................
.................
.................
.................
.................
.................

Generation = 96, Population = 0.
.................
.................
.................
.................
.................
.................
.................
.................
.................
.................

*** Life<ConwayCell> 8x7 ***

Generation = 0, Population = 10.
..*....
*......
.......
..*...*
..*...*
.......
*....*.
..**...

*** Life<ConwayCell> 19x7 ***

Generation = 0, Population = 11.
....*..
.......
.....*.
.......
*......
.....*.
..*....
.......
.......
.*.....
...*...
.......
.......
.......
.......
**.....
..*....
.......
.*.....

Generation = 17, Population = 0.
.......
.......
.......
.......
.......
.......
.......
.......
.......
.......
.......
.......
.......
.......
.......
.......
.......
.......
.......

Generation = 34, Population = 0.
.......
.......
.......
.......
.......
.......
.......
.......
.......
.......
.......
.......
.......
.......
.......
.......
.......
.......
.......

Generation = 51, Population = 0.
.......
.......
.......
.......
.......
.......
.......
.......
.......
.......
.......
.......
.......
.......
.......
.......
.......
.......
.......

Generation = 68, Population = 0.
.......
.......
.......
.......
.......
.......
.......
.......
.......
.......
.......
.......
.......
.......
.......
.......
.......
.......
.......

Generation = 85, Population = 0.
.......
.......
.......
.......
.......
.......
.......
.......
.......
.......
.......
.......
.......
.......
.......
.......
.......
.......
.......

Generation = 102, Population = 0.
.......
.......
.......
.......
.......
.......
.......
.......
.......
.......
.......
.......
.......
.......
.......
.......
.......
.......
.......

Generation = 119, Population = 0.
.......
.......
.......
.......
.......
.......
.......
.......
.......
.......
.......
.......
.......
.......
.......
.......
.......
.......
.......

Generation = 136, Population = 0.
.......
.......
.......
.......
.......
.......
.......
.......
.......
.......
.......
.......
.......
.......
.......
.......
.......
.......
.......

Generation = 153, Population = 0.
.......
.......
.......
.......
.......
.......
.......
.......
.......
.......
.......
.......
.......
.......
.......
.......
.......
.......
.......

Generation = 170, Population = 0.
.......
.......
.......
.......
.......
.......
.......
.......
.......
.......
.......
.......
.......
.......
.......
.......
.......
.......
.......

Generation = 187, Population = 0.
.......
.......
.......
.......
.......
.......
.......
.......
.......
.......
.......
.......
.......
.......
.......
.......
.......
.......
.......

Generation = 204, Population = 0.
.......
.......
.......
.......
.......
.......
.......
.......
.......
.......
.......
.......
.......
.......
.......
.......
.......
.......
.......

Generation = 221, Population = 0.
.......
.......
.......
.......
.......
.......
.......
.......
.......
.......
.......
.......
.......
.......
.......
.......
.......
.......
.......

Generation = 238, Population = 0.
.......
.......
.......
.......
.......
.......
.......
.......
.......
.......
.......
.......
.......
.......
.......
.......
.......
.......
.......

Generation = 255, Population = 0.
.......
.......
.......
.......
.......
.......
.......
.......
.......
.......
.......
.......
.......
.......
.......
.......
.......
.......
.......

Generation = 272, Population = 0.
.......
.......
.......
.......
.......
.......
.......
.......
.......
.......
.......
.......
.......
.......
.......
.......
.......
.......
.......

Generation = 289, Population = 0.
.......
.......
.......
.......
.......
.......
.......
.......
.......
.......
.......
.......
.......
.......
.......
.......
.......
.......
.......

Generation = 306, Population = 0.
.......
.......
.......
.......
.......
.......
.......
.......
.......
.......
.......
.......
.......
.......
.......
.......
.......
.......
.......

Generation = 323, Population = 0.
.......
.......
.......
.......
.......
.......
.......
.......
.......
.......
.......
.......
.......
.......
.......
.......
.......
.......
.......

Generation = 340, Population = 0.
.......
.......
.......
.......
.......
.......
.......
.......
.......
.......
.......
.......
.......
.......
.......
.......
.......
.......
.......

Generation = 357, Population = 0.
.......
.......
.......
.......
.......
.......
.......
.......
.......
.......
.......
.......
.......
.......
.......
.......
.......
.......
.......

Generation = 374, Population = 0.
.......
.......
.......
.......
.......
.......
.......
.......
.......
.......
.......
.......
.......
.......
.......
.......
.......
.......
.......

*** Life<ConwayCell> 8x1 ***

Generation = 0, Population = 8.
*
*
*
*
*
*
*
*

*** Life<ConwayCell> 3x11 ***

Generation = 0, Population = 13.
*..**.***..
*......*.*.
.*......***

Generation = 89, Population = 0.
...........
...........
...........

Generation = 178, Population = 0.
...........
...........
...........

Generation = 267, Population = 0.
...........
...........
...........

*** Life<ConwayCell> 12x2 ***

Generation = 0, Population = 6.
.*
.*
..
.*
..
..
..
..
..
**
..
.*

Generation = 183, Population = 0.
..
..
..
..
..
..
..
..
..
..
..
..

