*** Life<ConwayCell> 22x9 ***

Generation = 0, Population = 16.
.........
.........
.**......
.........
.*......*
.........
.........
.........
.*.....*.
.**......
.........
.........
......*..
.........
.*.......
...*.*...
.........
..*......
.........
.........
*...*...*
.........

Generation = 10, Population = 4.
.........
.........
.........
.........
.........
.........
.........
.........
.**......
.**......
.........
.........
.........
.........
.........
.........
.........
.........
.........
.........
.........
.........

Generation = 20, Population = 4.
.........
.........
.........
.........
.........
.........
.........
.........
.**......
.**......
.........
.........
.........
.........
.........
.........
.........
.........
.........
.........
.........
.........

Generation = 30, Population = 4.
.........
.........
.........
.........
.........
.........
.........
.........
.**......
.**......
.........
.........
.........
.........
.........
.........
.........
.........
.........
.........
.........
.........

*** Life<ConwayCell> 17x20 ***

Generation = 0, Population = 11.
....................
....................
....................
....................
...................*
....................
....................
..............*.....
.................*..
....................
....................
...*................
........*...........
.......**...........
...............*....
..............*.....
.....*........*.....

Generation = 13, Population = 4.
....................
....................
....................
....................
....................
....................
....................
....................
....................
....................
....................
....................
.......**...........
.......**...........
....................
....................
....................

Generation = 26, Population = 4.
....................
....................
....................
....................
....................
....................
....................
....................
....................
....................
....................
....................
.......**...........
.......**...........
....................
....................
....................

*** Life<ConwayCell> 23x19 ***

Generation = 0, Population = 14.
.........*.........
...................
...................
...................
...................
...................
...................
................*..
..*................
.........*.........
...................
...................
............*...*..
...................
.....*.............
...................
...................
..............*....
..............*....
......*............
......*............
.....*.....*.......
...*...............

Generation = 12, Population = 0.
...................
...................
...................
...................
...................
...................
...................
...................
...................
...................
...................
...................
...................
...................
...................
...................
...................
...................
...................
...................
...................
...................
...................

Generation = 24, Population = 0.
...................
...................
...................
...................
...................
...................
...................
...................
...................
...................
...................
...................
...................
...................
...................
...................
...................
...................
...................
...................
...................
...................
...................

*** Life<ConwayCell> 15x16 ***

Generation = 0, Population = 13.
....*...........
................
................
..............*.
................
.*.......*......
..*..*..........
..*.............
.............*.*
.........*......
................
*......*........
................
...............*
................

Generation = 10, Population = 0.
................
................
................
................
................
................
................
................
................
................
................
................
................
................
................

Generation = 20, Population = 0.
................
................
................
................
................
................
................
................
................
................
................
................
................
................
................

*** Life<ConwayCell> 22x18 ***

Generation = 0, Population = 15.
..................
..................
..................
............*.....
......*........*..
..*......*........
..................
..................
..........*.......
...........*......
.....*............
..................
..................
..................
.........*........
......*..*........
................*.
..................
...............*..
..................
..................
.............*..*.

Generation = 16, Population = 0.
..................
..................
..................
..................
..................
..................
..................
..................
..................
..................
..................
..................
..................
..................
..................
..................
..................
..................
..................
..................
..................
..................

Generation = 32, Population = 0.
..................
..................
..................
..................
..................
..................
..................
..................
..................
..................
..................
..................
..................
..................
..................
..................
..................
..................
..................
..................
..................
..................

*** Life<ConwayCell> 20x9 ***

Generation = 0, Population = 16.
*........
......*..
.....*...
.........
.........
.........
....*....
.........
*........
.*.......
...*.....
.....*...
........*
......*..
.........
.....*...
.*.......
....*....
..*......
*......*.

Generation = 15, Population = 0.
.........
.........
.........
.........
.........
.........
.........
.........
.........
.........
.........
.........
.........
.........
.........
.........
.........
.........
.........
.........

*** Life<ConwayCell> 21x7 ***

Generation = 0, Population = 11.
.....*.
.......
......*
.......
.......
.......
.......
..*....
.......
.......
..*....
.......
.......
.....*.
.*.....
.......
.......
......*
..*....
......*
*...*..

Generation = 13, Population = 0.
.......
.......
.......
.......
.......
.......
.......
.......
.......
.......
.......
.......
.......
.......
.......
.......
.......
.......
.......
.......
.......

*** Life<ConwayCell> 25x20 ***

Generation = 0, Population = 19.
....................
..................*.
....................
........*...........
..............*.....
......*..........*..
..*.................
....................
...*................
....................
.....*......*.......
....................
........*.......*...
...*................
.....*..............
....................
..................*.
.*...........*......
....................
....................
....................
....................
...........*......*.
....................
.......*............

Generation = 10, Population = 0.
....................
....................
....................
....................
....................
....................
....................
....................
....................
....................
....................
....................
....................
....................
....................
....................
....................
....................
....................
....................
....................
....................
....................
....................
....................

Generation = 20, Population = 0.
....................
....................
....................
....................
....................
....................
....................
....................
....................
....................
....................
....................
....................
....................
....................
....................
....................
....................
....................
....................
....................
....................
....................
....................
....................

Generation = 30, Population = 0.
....................
....................
....................
....................
....................
....................
....................
....................
....................
....................
....................
....................
....................
....................
....................
....................
....................
....................
....................
....................
....................
....................
....................
....................
....................

*** Life<ConwayCell> 15x20 ***

Generation = 0, Population = 11.
....................
..............**....
....................
*...................
....................
....................
....................
..................*.
..............*.....
*........*.......*..
...........*....*...
....................
....................
........*...........
....................

Generation = 14, Population = 0.
....................
....................
....................
....................
....................
....................
....................
....................
....................
....................
....................
....................
....................
....................
....................

*** Life<ConwayCell> 16x6 ***

Generation = 0, Population = 12.
......
......
......
.....*
......
.....*
*.....
.....*
.*..*.
......
..*...
......
...*.*
......
.**...
.....*

Generation = 17, Population = 0.
......
......
......
......
......
......
......
......
......
......
......
......
......
......
......
......

*** Life<ConwayCell> 26x16 ***

Generation = 0, Population = 18.
................
................
.............*..
..............*.
................
..........*.....
.........*......
................
.............*..
......*.........
*...............
................
................
...*...*........
................
....*...........
.............*..
................
................
.......*........
................
.......*........
......*..**.....
.*..............
................
.........*......

Generation = 11, Population = 0.
................
................
................
................
................
................
................
................
................
................
................
................
................
................
................
................
................
................
................
................
................
................
................
................
................
................

*** Life<ConwayCell> 19x20 ***

Generation = 0, Population = 11.
....................
.*.....*............
*...................
....................
....................
.....*............*.
....................
....................
...*......*.........
....................
.......*............
....................
..........*.........
..........*.........
*...................
....................
....................
....................
....................

*** Life<ConwayCell> 15x12 ***

Generation = 0, Population = 20.
........*.**
.*..*......*
....*.......
............
............
..*...*.....
.........*..
.......*....
..*.........
*.........*.
.......**...
............
...**.......
......*..*..
............

Generation = 15, Population = 4.
..........**
..........**
............
............
............
............
............
............
............
............
............
............
............
............
............

Generation = 30, Population = 4.
..........**
..........**
............
............
............
............
............
............
............
............
............
............
............
............
............

*** Life<ConwayCell> 19x19 ***

Generation = 0, Population = 13.
...................
.................*.
.*.................
...................
...................
.........**........
...................
...................
................*..
..*................
......*..........*.
................*..
...*...............
...................
...................
...*...............
...................
..............*....
...............*...

*** Life<ConwayCell> 16x19 ***

Generation = 0, Population = 20.
.........*......*..
............*.....*
................*..
...................
...................
....*....*........*
..........*........
...................
.................*.
...................
........*..........
...................
...**....*..*......
...................
..**..............*
........*.......*..

Generation = 14, Population = 0.
...................
...................
...................
...................
...................
...................
...................
...................
...................
...................
...................
...................
...................
...................
...................
...................

Generation = 28, Population = 0.
...................
...................
...................
...................
...................
...................
...................
...................
...................
...................
...................
...................
...................
...................
...................
...................

*** Life<ConwayCell> 19x9 ***

Generation = 0, Population = 18.
.......*.
.*.......
*........
.*.*.....
.........
.*.......
.....*...
.....*...
.........
.......*.
..*......
.........
...*..*..
.........
*.*..*...
....*....
.........
......*..
.....*...

Generation = 20, Population = 0.
.........
.........
.........
.........
.........
.........
.........
.........
.........
.........
.........
.........
.........
.........
.........
.........
.........
.........
.........

*** Life<ConwayCell> 26x9 ***

Generation = 0, Population = 15.
.....*...
.........
.........
.........
.........
.........
.....*...
.........
......*..
.........
.........
.........
.........
*........
.........
.......*.
.*.*....*
.........
.....*...
.......*.
.......*.
.........
*........
*...*....
.........
......*..

Generation = 18, Population = 0.
.........
.........
.........
.........
.........
.........
.........
.........
.........
.........
.........
.........
.........
.........
.........
.........
.........
.........
.........
.........
.........
.........
.........
.........
.........
.........

Generation = 36, Population = 0.
.........
.........
.........
.........
.........
.........
.........
.........
.........
.........
.........
.........
.........
.........
.........
.........
.........
.........
.........
.........
.........
.........
.........
.........
.........
.........

*** Life<ConwayCell> 22x20 ***

Generation = 0, Population = 20.
....................
....................
.........*...*......
.*..................
.........*..........
....................
..........*..*......
....................
..............*.....
....................
...*...*.......*....
....................
...............*....
....................
............*.......
....................
..................*.
.*..*...............
.............*......
..................**
..............*.....
...*................

*** Life<ConwayCell> 21x5 ***

Generation = 0, Population = 15.
....*
.....
.*...
*....
.....
.....
.....
.....
*....
....*
*....
*..*.
.....
.*.*.
...*.
...*.
..*..
....*
.....
.....
....*

Generation = 12, Population = 4.
.....
.....
.....
.....
.....
.....
.....
.....
.....
.....
.....
.....
.....
.....
.....
..**.
..**.
.....
.....
.....
.....

*** Life<ConwayCell> 22x18 ***

Generation = 0, Population = 17.
..................
................*.
...........*......
.*................
....*.............
..................
..................
..*........*......
..................
.................*
................*.
..................
..........*.......
..................
...........*......
..................
..*...............
..................
..........*.......
...........*......
..........*.......
.....*......**....

Generation = 11, Population = 6.
..................
..................
..................
..................
..................
..................
..................
..................
..................
..................
..................
..................
..................
..................
..................
..................
..................
..................
...........*......
..........*.*.....
..........*.*.....
...........*......

Generation = 22, Population = 6.
..................
..................
..................
..................
..................
..................
..................
..................
..................
..................
..................
..................
..................
..................
..................
..................
..................
..................
...........*......
..........*.*.....
..........*.*.....
...........*......

*** Life<ConwayCell> 15x17 ***

Generation = 0, Population = 16.
................*
......*..........
.*.............*.
...........*.....
.................
.................
....*............
.................
.........*.......
*................
.................
...........*.....
.............*...
.**..............
*.......*.**.....

Generation = 10, Population = 0.
.................
.................
.................
.................
.................
.................
.................
.................
.................
.................
.................
.................
.................
.................
.................

Generation = 20, Population = 0.
.................
.................
.................
.................
.................
.................
.................
.................
.................
.................
.................
.................
.................
.................
.................

Generation = 30, Population = 0.
.................
.................
.................
.................
.................
.................
.................
.................
.................
.................
.................
.................
.................
.................
.................

*** Life<ConwayCell> 19x12 ***

Generation = 0, Population = 19.
........*...
.....*......
............
..*...*.....
............
............
............
.*.*..*.....
.........*..
............
...*..**....
.....*......
...........*
.*.*...*....
............
..........*.
..*.........
............
...*........

Generation = 15, Population = 0.
............
............
............
............
............
............
............
............
............
............
............
............
............
............
............
............
............
............
............

Generation = 30, Population = 0.
............
............
............
............
............
............
............
............
............
............
............
............
............
............
............
............
............
............
............

*** Life<ConwayCell> 25x14 ***

Generation = 0, Population = 15.
..............
..............
......*.......
......*.......
..............
...*.........*
..............
..............
.......*......
..............
.*............
............*.
....*....*....
..............
..............
....*.....*...
...*..........
..............
..............
..............
..............
..............
...*.*........
..............
..*...........

Generation = 13, Population = 0.
..............
..............
..............
..............
..............
..............
..............
..............
..............
..............
..............
..............
..............
..............
..............
..............
..............
..............
..............
..............
..............
..............
..............
..............
..............

Generation = 26, Population = 0.
..............
..............
..............
..............
..............
..............
..............
..............
..............
..............
..............
..............
..............
..............
..............
..............
..............
..............
..............
..............
..............
..............
..............
..............
..............

*** Life<ConwayCell> 20x8 ***

Generation = 0, Population = 13.
...*.*.*
.....*..
**.*....
........
........
........
........
........
........
........
........
......**
........
....*...
........
........
........
..*.....
........
......**

Generation = 14, Population = 0.
........
........
........
........
........
........
........
........
........
........
........
........
........
........
........
........
........
........
........
........

*** Life<ConwayCell> 30x19 ***

Generation = 0, Population = 13.
........*..........
.....*............*
...................
.....*.............
...................
...................
....*..............
........*..........
...................
...................
...................
...................
........*.......*..
...................
...................
...................
...................
...................
...................
...*...............
................*..
...................
...................
...................
...................
...................
.............*.....
...................
..*................
..............*....

Generation = 10, Population = 0.
...................
...................
...................
...................
...................
...................
...................
...................
...................
...................
...................
...................
...................
...................
...................
...................
...................
...................
...................
...................
...................
...................
...................
...................
...................
...................
...................
...................
...................
...................

Generation = 20, Population = 0.
...................
...................
...................
...................
...................
...................
...................
...................
...................
...................
...................
...................
...................
...................
...................
...................
...................
...................
...................
...................
...................
...................
...................
...................
...................
...................
...................
...................
...................
...................

*** Life<ConwayCell> 28x18 ***

Generation = 0, Population = 11.
..................
..*...............
..................
.........*........
..................
.........*........
..................
..................
..................
..................
...........*.*....
..................
.....*............
..................
..................
..................
..................
..................
..................
.........*........
..................
...*..............
........*.........
....*.............
..................
..................
*.................
..................

Generation = 14, Population = 0.
..................
..................
..................
..................
..................
..................
..................
..................
..................
..................
..................
..................
..................
..................
..................
..................
..................
..................
..................
..................
..................
..................
..................
..................
..................
..................
..................
..................

*** Life<ConwayCell> 15x17 ***

Generation = 0, Population = 18.
......*..........
.........*.......
..............*..
......*..........
.................
.................
......*......*...
.................
.................
.......*....*....
**...............
.**...*.....*....
...............*.
...*..*..........
..*..............

