*** Life<Cell> 8x7 ***

Generation = 0, Population = 10.
0------
-------
------0
-----0-
-----0-
0--0--0
0-0---0
-------

Generation = 8, Population = 25.
*-01100
.-01--*
*--0..*
1.0**.1
**1.1.-
..----.
*1.0-..
.--0-..

Generation = 16, Population = 17.
.*-..-1
*.-*1..
..*-...
*.0..*.
.*....-
.**.*0.
..*.*..
...*-..

Generation = 24, Population = 17.
.....-.
.*-.*..
*....*.
......*
*.**.**
*..*..*
.***...
....*..

Generation = 32, Population = 16.
.....-.
..-....
.*.*...
**..*..
**...*.
**...**
*....**
.*.....

Generation = 40, Population = 14.
.....-.
***....
***....
.......
.......
....***
...*.**
...**..

Generation = 48, Population = 14.
.*...-.
*.*....
*.*....
.*.....
.....*.
....*.*
...*..*
...***.

Generation = 56, Population = 14.
.*...-.
*.*....
*.*....
.*.....
.....*.
....*.*
...*..*
...***.

Generation = 64, Population = 14.
.*...-.
*.*....
*.*....
.*.....
.....*.
....*.*
...*..*
...***.

Generation = 72, Population = 14.
.*...-.
*.*....
*.*....
.*.....
.....*.
....*.*
...*..*
...***.

Generation = 80, Population = 14.
.*...-.
*.*....
*.*....
.*.....
.....*.
....*.*
...*..*
...***.

Generation = 88, Population = 14.
.*...-.
*.*....
*.*....
.*.....
.....*.
....*.*
...*..*
...***.

Generation = 96, Population = 14.
.*...-.
*.*....
*.*....
.*.....
.....*.
....*.*
...*..*
...***.

Generation = 104, Population = 14.
.*...-.
*.*....
*.*....
.*.....
.....*.
....*.*
...*..*
...***.

Generation = 112, Population = 14.
.*...-.
*.*....
*.*....
.*.....
.....*.
....*.*
...*..*
...***.

Generation = 120, Population = 14.
.*...-.
*.*....
*.*....
.*.....
.....*.
....*.*
...*..*
...***.

Generation = 128, Population = 14.
.*...-.
*.*....
*.*....
.*.....
.....*.
....*.*
...*..*
...***.

Generation = 136, Population = 14.
.*...-.
*.*....
*.*....
.*.....
.....*.
....*.*
...*..*
...***.

Generation = 144, Population = 14.
.*...-.
*.*....
*.*....
.*.....
.....*.
....*.*
...*..*
...***.

Generation = 152, Population = 14.
.*...-.
*.*....
*.*....
.*.....
.....*.
....*.*
...*..*
...***.

Generation = 160, Population = 14.
.*...-.
*.*....
*.*....
.*.....
.....*.
....*.*
...*..*
...***.

Generation = 168, Population = 14.
.*...-.
*.*....
*.*....
.*.....
.....*.
....*.*
...*..*
...***.

Generation = 176, Population = 14.
.*...-.
*.*....
*.*....
.*.....
.....*.
....*.*
...*..*
...***.

Generation = 184, Population = 14.
.*...-.
*.*....
*.*....
.*.....
.....*.
....*.*
...*..*
...***.

Generation = 192, Population = 14.
.*...-.
*.*....
*.*....
.*.....
.....*.
....*.*
...*..*
...***.

Generation = 200, Population = 14.
.*...-.
*.*....
*.*....
.*.....
.....*.
....*.*
...*..*
...***.

Generation = 208, Population = 14.
.*...-.
*.*....
*.*....
.*.....
.....*.
....*.*
...*..*
...***.

Generation = 216, Population = 14.
.*...-.
*.*....
*.*....
.*.....
.....*.
....*.*
...*..*
...***.

Generation = 224, Population = 14.
.*...-.
*.*....
*.*....
.*.....
.....*.
....*.*
...*..*
...***.

Generation = 232, Population = 14.
.*...-.
*.*....
*.*....
.*.....
.....*.
....*.*
...*..*
...***.

Generation = 240, Population = 14.
.*...-.
*.*....
*.*....
.*.....
.....*.
....*.*
...*..*
...***.

*** Life<Cell> 10x2 ***

Generation = 0, Population = 8.
-0
-0
0-
-0
-0
-0
--
--
-0
-0

*** Life<Cell> 1x5 ***

Generation = 0, Population = 5.
00000

Generation = 38, Population = 2.
-0-0-

Generation = 76, Population = 2.
-0-0-

Generation = 114, Population = 2.
-0-0-

Generation = 152, Population = 2.
-0-0-

*** Life<Cell> 10x8 ***

Generation = 0, Population = 4.
--------
--------
--------
--------
--------
--0----0
-----0--
--------
-0------
--------

Generation = 60, Population = 9.
........
........
....*...
...*.*..
...*.*..
....*...
........
........
...**...
-..-*...

Generation = 120, Population = 9.
........
........
....*...
...*.*..
...*.*..
....*...
........
........
...**...
-..-*...

Generation = 180, Population = 9.
........
........
....*...
...*.*..
...*.*..
....*...
........
........
...**...
-..-*...

*** Life<Cell> 8x1 ***

Generation = 0, Population = 6.
0
0
0
0
0
-
0
-

Generation = 16, Population = 2.
1
-
1
-
.
.
-
-

Generation = 32, Population = 1.
1
-
-
-
.
.
-
-

Generation = 48, Population = 1.
-
-
1
-
.
.
-
-

Generation = 64, Population = 2.
1
-
1
-
.
.
-
-

*** Life<Cell> 10x2 ***

Generation = 0, Population = 16.
-0
00
00
0-
00
0-
00
00
00
0-

Generation = 67, Population = 1.
..
..
1.
-.
..
..
..
..
..
..

*** Life<Cell> 9x10 ***

Generation = 0, Population = 19.
0-0--0--0-
----0-----
-0--------
--00------
---0-----0
----0---0-
0-00-0--0-
----------
-0--0-----

Generation = 21, Population = 14.
....--..*-
......**.*
......1*..
......*...
..*..-.**.
..*....-*1
-.*.......
.....---.-
..........

Generation = 42, Population = 0.
.....-....
..........
..........
..........
..........
..........
-.........
.....---.-
..........

Generation = 63, Population = 0.
.....-....
..........
..........
..........
..........
..........
-.........
.....---.-
..........

Generation = 84, Population = 0.
.....-....
..........
..........
..........
..........
..........
-.........
.....---.-
..........

Generation = 105, Population = 0.
.....-....
..........
..........
..........
..........
..........
-.........
.....---.-
..........

Generation = 126, Population = 0.
.....-....
..........
..........
..........
..........
..........
-.........
.....---.-
..........

Generation = 147, Population = 0.
.....-....
..........
..........
..........
..........
..........
-.........
.....---.-
..........

Generation = 168, Population = 0.
.....-....
..........
..........
..........
..........
..........
-.........
.....---.-
..........

Generation = 189, Population = 0.
.....-....
..........
..........
..........
..........
..........
-.........
.....---.-
..........

Generation = 210, Population = 0.
.....-....
..........
..........
..........
..........
..........
-.........
.....---.-
..........

Generation = 231, Population = 0.
.....-....
..........
..........
..........
..........
..........
-.........
.....---.-
..........

Generation = 252, Population = 0.
.....-....
..........
..........
..........
..........
..........
-.........
.....---.-
..........

Generation = 273, Population = 0.
.....-....
..........
..........
..........
..........
..........
-.........
.....---.-
..........

*** Life<Cell> 6x5 ***

Generation = 0, Population = 9.
0----
---00
-0--0
0--0-
-0---
-0---

Generation = 93, Population = 9.
..*..
.*.*.
*..*.
*.*..
**...
.....

*** Life<Cell> 2x2 ***

Generation = 0, Population = 4.
00
00

Generation = 77, Population = 0.
--
--

Generation = 154, Population = 0.
--
--

Generation = 231, Population = 0.
--
--

Generation = 308, Population = 0.
--
--

Generation = 385, Population = 0.
--
--

Generation = 462, Population = 0.
--
--

*** Life<Cell> 4x9 ***

Generation = 0, Population = 1.
---------
-----0---
---------
---------

Generation = 75, Population = 11.
-----0-0-
----0---0
-0-0-0---
0---0-0-0

Generation = 150, Population = 5.
---------
-----0-0-
---------
-0-0---0-

Generation = 225, Population = 9.
-0---0---
0-0-0-0--
-0-------
----0-0--

Generation = 300, Population = 3.
---------
-0---0---
---------
-----0---

*** Life<Cell> 7x4 ***

Generation = 0, Population = 14.
-00-
0---
-0--
000-
0000
00--
0---

Generation = 16, Population = 9.
....
-..-
.**.
.*.*
.*.*
..**
..1.

Generation = 32, Population = 5.
..*.
.***
..*.
....
....
....
....

Generation = 48, Population = 7.
.*..
*.*.
*..*
.**.
....
....
....

Generation = 64, Population = 7.
.*..
*.*.
*..*
.**.
....
....
....

Generation = 80, Population = 7.
.*..
*.*.
*..*
.**.
....
....
....

Generation = 96, Population = 7.
.*..
*.*.
*..*
.**.
....
....
....

Generation = 112, Population = 7.
.*..
*.*.
*..*
.**.
....
....
....

Generation = 128, Population = 7.
.*..
*.*.
*..*
.**.
....
....
....

Generation = 144, Population = 7.
.*..
*.*.
*..*
.**.
....
....
....

*** Life<Cell> 4x8 ***

Generation = 0, Population = 5.
0-0-0---
----0---
--------
----0---

Generation = 66, Population = 10.
**..--.1
*.....*-
.1-..*.*
.....**.

Generation = 132, Population = 10.
**..--.1
*.....*-
.1-..*.*
.....**.

Generation = 198, Population = 10.
**..--.1
*.....*-
.1-..*.*
.....**.

*** Life<Cell> 2x5 ***

Generation = 0, Population = 8.
0000-
0-000

Generation = 96, Population = 3.
.-*..
.**..

Generation = 192, Population = 3.
.-*..
.**..

Generation = 288, Population = 3.
.-*..
.**..

*** Life<Cell> 7x1 ***

Generation = 0, Population = 1.
-
-
0
-
-
-
-

Generation = 27, Population = 0.
-
-
-
-
-
-
-

Generation = 54, Population = 0.
-
-
-
-
-
-
-

*** Life<Cell> 4x6 ***

Generation = 0, Population = 16.
00-000
00-00-
0-000-
-00-0-

Generation = 61, Population = 0.
......
.-....
.....-
..--..

Generation = 122, Population = 0.
......
.-....
.....-
..--..

Generation = 183, Population = 0.
......
.-....
.....-
..--..

Generation = 244, Population = 0.
......
.-....
.....-
..--..

Generation = 305, Population = 0.
......
.-....
.....-
..--..

Generation = 366, Population = 0.
......
.-....
.....-
..--..

Generation = 427, Population = 0.
......
.-....
.....-
..--..

Generation = 488, Population = 0.
......
.-....
.....-
..--..

*** Life<Cell> 8x10 ***

Generation = 0, Population = 9.
----0----0
----------
0----0----
---0-----0
--0-------
---0-----0
----------
----------

Generation = 59, Population = 4.
.**.......
.**.......
..........
..........
..........
..........
..........
..........

Generation = 118, Population = 4.
.**.......
.**.......
..........
..........
..........
..........
..........
..........

Generation = 177, Population = 4.
.**.......
.**.......
..........
..........
..........
..........
..........
..........

Generation = 236, Population = 4.
.**.......
.**.......
..........
..........
..........
..........
..........
..........

*** Life<Cell> 4x2 ***

Generation = 0, Population = 8.
00
00
00
00

Generation = 6, Population = 0.
--
..
..
--

Generation = 12, Population = 0.
--
..
..
--

Generation = 18, Population = 0.
--
..
..
--

Generation = 24, Population = 0.
--
..
..
--

Generation = 30, Population = 0.
--
..
..
--

Generation = 36, Population = 0.
--
..
..
--

Generation = 42, Population = 0.
--
..
..
--

Generation = 48, Population = 0.
--
..
..
--

Generation = 54, Population = 0.
--
..
..
--

Generation = 60, Population = 0.
--
..
..
--

Generation = 66, Population = 0.
--
..
..
--

Generation = 72, Population = 0.
--
..
..
--

Generation = 78, Population = 0.
--
..
..
--

Generation = 84, Population = 0.
--
..
..
--

Generation = 90, Population = 0.
--
..
..
--

Generation = 96, Population = 0.
--
..
..
--

Generation = 102, Population = 0.
--
..
..
--

Generation = 108, Population = 0.
--
..
..
--

Generation = 114, Population = 0.
--
..
..
--

Generation = 120, Population = 0.
--
..
..
--

Generation = 126, Population = 0.
--
..
..
--

Generation = 132, Population = 0.
--
..
..
--

Generation = 138, Population = 0.
--
..
..
--

Generation = 144, Population = 0.
--
..
..
--

Generation = 150, Population = 0.
--
..
..
--

Generation = 156, Population = 0.
--
..
..
--

Generation = 162, Population = 0.
--
..
..
--

Generation = 168, Population = 0.
--
..
..
--

Generation = 174, Population = 0.
--
..
..
--

Generation = 180, Population = 0.
--
..
..
--

Generation = 186, Population = 0.
--
..
..
--

Generation = 192, Population = 0.
--
..
..
--

Generation = 198, Population = 0.
--
..
..
--

Generation = 204, Population = 0.
--
..
..
--

Generation = 210, Population = 0.
--
..
..
--

Generation = 216, Population = 0.
--
..
..
--

Generation = 222, Population = 0.
--
..
..
--

Generation = 228, Population = 0.
--
..
..
--

Generation = 234, Population = 0.
--
..
..
--

Generation = 240, Population = 0.
--
..
..
--

Generation = 246, Population = 0.
--
..
..
--

Generation = 252, Population = 0.
--
..
..
--

Generation = 258, Population = 0.
--
..
..
--

Generation = 264, Population = 0.
--
..
..
--

Generation = 270, Population = 0.
--
..
..
--

Generation = 276, Population = 0.
--
..
..
--

Generation = 282, Population = 0.
--
..
..
--

Generation = 288, Population = 0.
--
..
..
--

Generation = 294, Population = 0.
--
..
..
--

Generation = 300, Population = 0.
--
..
..
--

Generation = 306, Population = 0.
--
..
..
--

Generation = 312, Population = 0.
--
..
..
--

Generation = 318, Population = 0.
--
..
..
--

Generation = 324, Population = 0.
--
..
..
--

Generation = 330, Population = 0.
--
..
..
--

Generation = 336, Population = 0.
--
..
..
--

Generation = 342, Population = 0.
--
..
..
--

Generation = 348, Population = 0.
--
..
..
--

Generation = 354, Population = 0.
--
..
..
--

Generation = 360, Population = 0.
--
..
..
--

Generation = 366, Population = 0.
--
..
..
--

Generation = 372, Population = 0.
--
..
..
--

Generation = 378, Population = 0.
--
..
..
--

Generation = 384, Population = 0.
--
..
..
--

Generation = 390, Population = 0.
--
..
..
--

Generation = 396, Population = 0.
--
..
..
--

Generation = 402, Population = 0.
--
..
..
--

Generation = 408, Population = 0.
--
..
..
--

Generation = 414, Population = 0.
--
..
..
--

Generation = 420, Population = 0.
--
..
..
--

Generation = 426, Population = 0.
--
..
..
--

Generation = 432, Population = 0.
--
..
..
--

Generation = 438, Population = 0.
--
..
..
--

Generation = 444, Population = 0.
--
..
..
--

Generation = 450, Population = 0.
--
..
..
--

Generation = 456, Population = 0.
--
..
..
--

Generation = 462, Population = 0.
--
..
..
--

Generation = 468, Population = 0.
--
..
..
--

Generation = 474, Population = 0.
--
..
..
--

Generation = 480, Population = 0.
--
..
..
--

Generation = 486, Population = 0.
--
..
..
--

*** Life<Cell> 5x6 ***

Generation = 0, Population = 16.
0-000-
---00-
000-0-
0--000
--00--

Generation = 46, Population = 4.
......
......
......
**....
**...-

Generation = 92, Population = 4.
......
......
......
**....
**...-

Generation = 138, Population = 4.
......
......
......
**....
**...-

Generation = 184, Population = 4.
......
......
......
**....
**...-

Generation = 230, Population = 4.
......
......
......
**....
**...-

*** Life<Cell> 1x1 ***

Generation = 0, Population = 1.
0

Generation = 23, Population = 0.
-

Generation = 46, Population = 0.
-

*** Life<Cell> 3x4 ***

Generation = 0, Population = 10.
0000
00-0
00-0

Generation = 38, Population = 0.
-.-.
....
....

Generation = 76, Population = 0.
-.-.
....
....

Generation = 114, Population = 0.
-.-.
....
....

Generation = 152, Population = 0.
-.-.
....
....

Generation = 190, Population = 0.
-.-.
....
....

Generation = 228, Population = 0.
-.-.
....
....

Generation = 266, Population = 0.
-.-.
....
....

Generation = 304, Population = 0.
-.-.
....
....

*** Life<Cell> 10x5 ***

Generation = 0, Population = 18.
-0000
-00--
----0
---00
0----
000--
-0--0
----0
---0-
-0---

