27

25 16
5
6 15
1 10
20 5
24 1
11 3
39 1

30 11
1
5 3
2 5

47 11
11
37 2
29 9
25 3
19 5
15 10
9 2
1 1
2 4
33 3
22 10
14 3
42 3

46 13
3
31 11
14 7
21 5
29 6

32 33
4
24 26
22 12
19 29
20 30
46 7

8 10
31
6 0
5 9
2 5
4 2
7 3
2 7
1 3
6 7
4 2
4 5
2 7
6 7
7 1
0 7
0 2
6 5
2 3
2 2
2 7
7 7
6 7
6 1
6 8
6 9
4 6
6 5
6 4
2 0
4 6
6 6
6 8
8 3

49 25
35
30 16
17 18
12 11
33 19
2 18
23 7
48 9
27 7
34 13
13 17
21 6
20 21
12 0
14 24
19 0
14 10
11 24
19 17
8 8
41 6
17 16
3 3
37 16
37 3
1 6
14 12
7 20
3 12
42 6
37 0
36 12
25 11
36 15
24 7
37 20
22 3

34 14
34
12 5
31 6
19 11
24 12
33 8
10 13
10 4
13 12
27 6
15 4
6 3
10 0
23 1
2 10
16 7
5 3
1 6
19 13
10 6
9 7
28 12
13 11
23 9
7 0
23 8
27 4
8 3
20 6
6 6
33 3
31 5
31 13
28 8
3 13
15 3

17 20
29
1 14
6 4
3 17
13 1
10 4
4 15
15 0
3 9
9 14
10 5
1 4
11 6
6 11
7 10
9 7
5 15
9 15
8 1
1 9
6 7
14 18
16 14
8 1
3 2
14 15
3 5
9 12
16 4
8 4
10 8

4 1
6
0 0
2 0
3 0
1 0
1 0
1 0
5 5

47 46
9
4 33
9 34
1 23
22 36
8 12
38 25
3 16
40 43
12 1
27 10

31 25
2
3 5
12 8
1 10

20 4
23
9 1
15 0
12 1
15 2
19 0
19 0
14 3
15 1
13 1
6 3
3 0
16 2
4 1
19 1
8 0
15 1
14 1
1 0
9 2
9 1
3 1
7 0
8 1
2 9

12 44
32
10 41
5 40
8 9
5 9
11 11
7 26
9 13
3 11
8 42
7 21
6 4
9 2
3 35
11 37
8 43
2 6
2 0
9 36
8 26
10 2
3 27
10 13
9 34
8 9
3 15
0 21
11 9
2 38
1 29
8 40
2 10
11 3
6 4

21 36
28
4 6
9 29
1 6
0 24
7 32
17 16
3 18
4 20
16 19
16 31
10 19
11 26
16 1
20 14
6 13
14 14
4 3
1 28
13 12
13 16
4 24
9 6
2 13
16 13
14 31
7 27
1 10
18 2
24 8

8 47
25
0 13
4 0
4 2
4 7
7 38
0 37
6 22
4 32
6 9
5 20
5 6
1 21
6 38
7 22
2 41
1 12
6 38
7 14
6 44
0 7
6 18
0 9
3 9
6 21
4 34
12 9

17 28
3
16 21
9 8
4 22
24 8

29 2
14
14 1
25 0
13 0
23 1
16 1
10 0
13 0
18 0
11 1
9 0
3 1
4 0
13 1
11 0
10 5

18 7
2
14 1
2 5
17 2

39 47
29
10 34
7 23
38 41
37 26
33 22
6 10
20 34
13 1
17 14
13 14
27 0
33 0
13 39
31 30
17 28
8 9
31 35
14 37
11 14
7 27
35 23
35 8
30 34
26 17
9 6
1 13
22 46
24 33
0 13
2 1

7 41
18
4 15
3 27
0 40
6 12
0 13
6 23
2 7
2 6
3 31
0 10
2 28
5 18
5 26
4 24
6 10
6 5
3 22
0 23
48 6

47 12
6
20 6
39 11
2 8
8 2
13 11
28 4
8 6

2 37
13
1 1
1 25
1 32
1 35
0 17
0 24
0 16
0 6
0 13
1 18
1 31
0 9
0 9
3 2

34 31
33
17 3
13 24
19 19
33 13
30 2
17 16
22 16
17 20
9 14
6 30
10 2
4 24
26 28
11 28
0 24
4 9
17 30
24 8
7 9
2 7
26 25
1 19
25 28
5 14
12 19
24 4
27 8
9 22
15 25
23 3
25 20
22 12
5 25
26 2

11 26
17
9 9
10 8
8 22
8 24
1 23
7 0
7 3
9 2
0 14
6 3
8 23
6 2
2 13
2 19
9 7
0 23
1 23
25 5

45 16
1
11 5
50 5

18 25
33
2 5
16 20
7 10
6 7
16 4
12 4
2 2
12 23
16 23
5 10
6 14
1 15
13 21
2 23
0 0
12 8
0 2
0 6
8 9
8 20
6 4
17 2
10 5
10 10
4 20
17 2
13 1
3 5
8 14
7 18
16 21
11 20
0 10
19 8
